<?xml version="1.0" encoding="utf-8"?>
<svg width="650px" height="401px" viewBox="0 0 650 401" version="1.1" xmlns:xlink="http://www.w3.org/1999/xlink" xmlns="http://www.w3.org/2000/svg">
  <desc>Created with Lunacy</desc>
  <defs>
    <rect width="650" height="400.00003" id="artboard_1" />
    <clipPath id="clip_1">
      <use xlink:href="#artboard_1" clip-rule="evenodd" />
    </clipPath>
  </defs>
  <g id="Artboard" clip-path="url(#clip_1)">
    <g id="Group" transform="translate(46 170)">
      <path d="M0 0.662094L80 0.662094" id="Line-4" fill="none" stroke="#333983" stroke-width="15" stroke-linecap="round" />
      <path d="M0 0.662094L80 0.662094" transform="translate(0 58.92578)" id="Line-4-Copy" fill="none" stroke="#333983" stroke-width="15" stroke-linecap="round" />
      <path d="M0 0.662094L65 0.662094" transform="translate(7.1111145 30.017792)" id="Line-4-Copy-2" fill="none" stroke="#333983" stroke-width="15" stroke-linecap="round" />
      <path d="M0.650406 0L0.650406 57.381" transform="translate(54.222214 0.8828125)" id="Line-5-Copy" fill="none" stroke="#333983" stroke-width="15" stroke-linecap="round" />
      <path d="M0.650406 0L0.650406 57.381" transform="translate(24.47699 0.8828125)" id="Line-5-Copy-2" fill="none" stroke="#333983" stroke-width="15" stroke-linecap="round" />
    </g>
    <g id="FreeTiers" fill="#333983" transform="translate(166.7857 135)">
      <path d="M289.9 37.5Q286.5 37.5 285.1 36.4Q283.7 35.3 283.7 32.5L283.7 30.6Q283.7 27.7 285.25 26.65Q286.8 25.6 290 25.6Q293.5 25.6 294.9 26.7Q296.3 27.8 296.3 30.6L296.3 32.5Q296.3 35.4 294.8 36.45Q293.3 37.5 289.9 37.5ZM13.8 97.5Q11 97.5 9.25 95.75Q7.5 94 7.5 91.4L7.5 33.6Q7.5 31 9.25 29.25Q11 27.5 13.6 27.5L46.1 27.5Q48.7 27.5 50.45 29.15Q52.2 30.8 52.2 33.4Q52.2 35.6 50.45 37.3Q48.7 39 46.1 39L20 39L20 56.6L41.6 56.6Q44.2 56.6 45.95 58.25Q47.7 59.9 47.7 62.5Q47.7 64.7 45.95 66.4Q44.2 68.1 41.6 68.1L20 68.1L20 91.4Q20 94 18.15 95.75Q16.3 97.5 13.8 97.5ZM220.35 37.4Q222.1 39 224.7 39L240.4 39L240.4 91.4Q240.4 94 242.2 95.75Q244 97.5 246.8 97.5Q249.7 97.5 251.55 95.75Q253.4 94 253.4 91.4L253.4 39L269.1 39Q271.7 39 273.45 37.45Q275.2 35.9 275.2 33.3Q275.2 30.7 273.45 29.1Q271.7 27.5 269.1 27.5L224.7 27.5Q222.1 27.5 220.35 29.05Q218.6 30.6 218.6 33.2Q218.6 35.8 220.35 37.4ZM68.7 97.5Q66.1 97.5 64.4 95.75Q62.7 94 62.7 91.4L62.7 50.1Q62.7 47.5 64.4 45.75Q66.1 44 68.7 44Q71.3 44 73 45.75Q74.7 47.5 74.7 50.1L74.7 51.4415Q75.6125 49.8582 76.85 48.55Q78.6 46.7 80.8 45.45Q83 44.2 85.5 43.6Q88 43 90.5 43Q93.5 43 95.55 44.7Q97.6 46.4 97.6 48.7Q97.6 52 95.9 53.45Q94.2 54.9 92.2 54.9Q90.3 54.9 88.75 54.2Q87.2 53.5 85.2 53.5Q83.4 53.5 81.55 54.35Q79.7 55.2 78.15 57Q76.6 58.8 75.65 61.45Q74.7 64.1 74.7 67.7L74.7 91.4Q74.7 94 73 95.75Q71.3 97.5 68.7 97.5ZM116.05 94.95Q122.3 98.5 130.8 98.5Q135.8 98.5 140.5 96.85Q145.2 95.2 147.8 93Q150.6 90.8 150.6 88.1Q150.6 86.1 149.15 84.6Q147.7 83.1 145.5 83.1Q143.9 83.1 142.1 84Q141 84.6 139.65 85.45Q138.3 86.3 136.1 86.9Q133.9 87.5 130.2 87.5Q126.2 87.5 122.65 85.55Q119.1 83.6 116.85 79.85Q115.534 77.6571 114.988 74.9L148 74.9Q150.4 74.9 152.2 73.4Q154 71.9 154.1 69.5Q154.1 64.1 152.05 59.3Q150 54.5 146.5 50.85Q143 47.2 138.45 45.1Q133.9 43 128.8 43Q122.2 43 116.3 46.4Q110.4 49.8 106.75 56.15Q103.1 62.5 103.1 71.5Q103.1 79.2 106.45 85.3Q109.8 91.4 116.05 94.95ZM188.8 98.5Q180.3 98.5 174.05 94.95Q167.8 91.4 164.45 85.3Q161.1 79.2 161.1 71.5Q161.1 62.5 164.75 56.15Q168.4 49.8 174.3 46.4Q180.2 43 186.8 43Q191.9 43 196.45 45.1Q201 47.2 204.5 50.85Q208 54.5 210.05 59.3Q212.1 64.1 212.1 69.5Q212 71.9 210.2 73.4Q208.4 74.9 206 74.9L172.988 74.9Q173.534 77.6571 174.85 79.85Q177.1 83.6 180.65 85.55Q184.2 87.5 188.2 87.5Q191.9 87.5 194.1 86.9Q196.3 86.3 197.65 85.45Q199 84.6 200.1 84Q201.9 83.1 203.5 83.1Q205.7 83.1 207.15 84.6Q208.6 86.1 208.6 88.1Q208.6 90.8 205.8 93Q203.2 95.2 198.5 96.85Q193.8 98.5 188.8 98.5ZM318.25 94.95Q324.5 98.5 333 98.5Q338 98.5 342.7 96.85Q347.4 95.2 350 93Q352.8 90.8 352.8 88.1Q352.8 86.1 351.35 84.6Q349.9 83.1 347.7 83.1Q346.1 83.1 344.3 84Q343.2 84.6 341.85 85.45Q340.5 86.3 338.3 86.9Q336.1 87.5 332.4 87.5Q328.4 87.5 324.85 85.55Q321.3 83.6 319.05 79.85Q317.734 77.6571 317.188 74.9L350.2 74.9Q352.6 74.9 354.4 73.4Q356.2 71.9 356.3 69.5Q356.3 64.1 354.25 59.3Q352.2 54.5 348.7 50.85Q345.2 47.2 340.65 45.1Q336.1 43 331 43Q324.4 43 318.5 46.4Q312.6 49.8 308.95 56.15Q305.3 62.5 305.3 71.5Q305.3 79.2 308.65 85.3Q312 91.4 318.25 94.95ZM372.3 97.5Q369.7 97.5 368 95.75Q366.3 94 366.3 91.4L366.3 50.1Q366.3 47.5 368 45.75Q369.7 44 372.3 44Q374.9 44 376.6 45.75Q378.3 47.5 378.3 50.1L378.3 51.4415Q379.212 49.8582 380.45 48.55Q382.2 46.7 384.4 45.45Q386.6 44.2 389.1 43.6Q391.6 43 394.1 43Q397.1 43 399.15 44.7Q401.2 46.4 401.2 48.7Q401.2 52 399.5 53.45Q397.8 54.9 395.8 54.9Q393.9 54.9 392.35 54.2Q390.8 53.5 388.8 53.5Q387 53.5 385.15 54.35Q383.3 55.2 381.75 57Q380.2 58.8 379.25 61.45Q378.3 64.1 378.3 67.7L378.3 91.4Q378.3 94 376.6 95.75Q374.9 97.5 372.3 97.5ZM405.7 85.6Q405.6 87.8 406.6 89.2Q410.5 94.4 416.4 96.45Q422.3 98.5 428.2 98.5Q432.9 98.5 437.4 96.65Q441.9 94.8 444.9 91.2Q447.9 87.6 447.9 82.5Q447.9 78.1 446.3 75.25Q444.7 72.4 442.1 70.6Q439.5 68.8 436.4 67.7Q433.3 66.6 430.3 65.8Q427.4 65 424.85 64.15Q422.3 63.3 420.8 61.95Q419.3 60.6 419.3 58.3Q419.3 55.8 420.6 54.65Q421.9 53.5 423.65 53.15Q425.4 52.8 426.9 52.8Q430.6 52.8 433.45 54.1Q436.3 55.4 438 57.6Q439.3 58.8 441.3 58.95Q443.3 59.1 444.8 57.9Q446.9 56.2 446.7 54.1Q446.5 52 445.4 50.5Q443.3 47.8 440.2 46.15Q437.1 44.5 433.7 43.75Q430.3 43 427.2 43Q422.3 43 417.85 44.9Q413.4 46.8 410.6 50.3Q407.8 53.8 407.8 58.8Q407.8 63.2 409.5 66.1Q411.2 69 413.9 70.75Q416.6 72.5 419.85 73.6Q423.1 74.7 426.2 75.6Q429.2 76.4 431.65 77.3Q434.1 78.2 435.6 79.5Q437.1 80.8 437.1 83Q437.1 85.6 435.75 86.85Q434.4 88.1 432.6 88.45Q430.8 88.8 429.3 88.9Q424.5 88.9 421.3 87.3Q418.1 85.7 415.2 82.8Q413.5 81.1 411.7 80.95Q409.9 80.8 408.3 81.8Q405.8 83.4 405.7 85.6ZM296 91.4Q296 94 294.3 95.75Q292.6 97.5 290 97.5Q287.4 97.5 285.7 95.75Q284 94 284 91.4L284 50.1Q284 47.5 285.7 45.75Q287.4 44 290 44Q292.6 44 294.3 45.75Q296 47.5 296 50.1L296 91.4ZM115.093 64.9Q115.337 63.6572 115.7 62.6Q116.8 59.4 118.7 57.5Q120.6 55.6 123.2 54.8Q125.8 54 128.8 54Q131.9 54 134.65 55.35Q137.4 56.7 139.25 59Q141.1 61.3 141.3 64.2L141.3 64.9L115.093 64.9ZM173.7 62.6Q173.337 63.6573 173.093 64.9L199.3 64.9L199.3 64.2Q199.1 61.3 197.25 59Q195.4 56.7 192.65 55.35Q189.9 54 186.8 54Q183.8 54 181.2 54.8Q178.6 55.6 176.7 57.5Q174.8 59.4 173.7 62.6ZM317.293 64.9Q317.537 63.6573 317.9 62.6Q319 59.4 320.9 57.5Q322.8 55.6 325.4 54.8Q328 54 331 54Q334.1 54 336.85 55.35Q339.6 56.7 341.45 59Q343.3 61.3 343.5 64.2L343.5 64.9L317.293 64.9Z" />
    </g>
  </g>
</svg>