<?xml version="1.0" encoding="utf-8"?>
<svg width="900px" height="600px" viewBox="0 0 900 600" version="1.1" xmlns:xlink="http://www.w3.org/1999/xlink" xmlns="http://www.w3.org/2000/svg">
  <defs>
    <path d="M0 0L600 0L600 300L0 300L0 0Z" id="path_1" />
    <rect width="900" height="600" id="artboard_1" />
    <clipPath id="clip_1">
      <use xlink:href="#artboard_1" clip-rule="evenodd" />
    </clipPath>
    <clipPath id="mask_1">
      <use xlink:href="#path_1" />
    </clipPath>
  </defs>
  <g id="FreeTiers-Post-Featured-Image" clip-path="url(#clip_1)">
    <use xlink:href="#artboard_1" stroke="none" fill="#FFFFFF" />
    <g id="Groupes" transform="translate(150 75)" artboard="532c89d3-07fa-4eba-a6b2-8b8c02e5bbfc">
      <g id="amazon_aws-ar21">
        <path d="M0 0L600 0L600 300L0 300L0 0Z" id="Arrière-plan" fill="#FFFFFF" fill-opacity="0" fill-rule="evenodd" stroke="none" />
        <g clip-path="url(#mask_1)">
          <path d="M79.3201 213.08L79.3201 168.85L109.5 179.135L109.5 223.915L79.3201 213.08ZM145.21 213.08L145.21 168.85L115.03 179.135L115.03 223.915L145.21 213.08ZM112.96 156.94L141.28 166.07L112.96 175.685L82.46 165.535L112.96 156.94ZM43.385 151.29L43.385 107L73.565 117.28L73.565 162.06L43.385 151.29ZM109.285 151.285L109.285 107L79.1051 117.28L79.1051 162.06L109.285 151.285ZM77.035 95.135L105.355 104.27L77.035 113.885L46.535 103.735L77.035 95.135ZM113.81 151.285L113.81 107L143.99 117.28L143.99 162.06L113.81 151.285ZM179.7 151.285L179.7 107L149.52 117.28L149.52 162.06L179.7 151.285ZM147.5 95.135L175.82 104.27L147.5 113.885L117 103.735L147.5 95.135ZM149.79 89.4851L149.79 45.2501L179.97 55.5351L179.97 100.31L149.79 89.4851ZM215.64 89.4801L215.64 45.2501L185.46 55.5351L185.46 100.31L215.64 89.4801ZM183.385 33.3501L211.705 42.4801L183.385 52.0951L152.885 41.9451L183.385 33.3501ZM220.16 89.4851L220.16 45.2501L250.34 55.5351L250.34 100.31L220.16 89.4851ZM286 89.4851L286 45.2501L255.82 55.5351L255.82 100.31L286 89.4851ZM253.8 33.3501L282.12 42.4801L253.8 52.0951L223.3 41.9451L253.8 33.3501Z" id="Forme" fill="#FF9900" fill-rule="evenodd" stroke="none" />
          <path d="M234.99 195.09L224.85 230.31L220.45 230.31L212.45 204.15L205.21 230.31L200.72 230.31L190.185 195.09L195.685 195.09L203.36 221.34L210.66 195.09L214.68 195.09L222.62 221.42L230.51 195.09L234.935 195.09L234.99 195.09ZM263.03 219.8L268.13 220.8C267.194 223.822 265.285 226.45 262.7 228.275C260 230.25 256.84 231.235 253.2 231.235C248.4 231.235 244.51 229.545 241.54 226.155C238.57 222.765 237.04 218.33 237.04 212.84C237.04 207.23 238.54 202.7 241.67 199.24C244.575 195.86 248.84 193.958 253.295 194.055C257.895 194.055 261.585 195.645 264.385 198.83C267.185 202.015 268.615 206.77 268.685 213.11L243.12 213.11C243.12 218.435 244.23 222.03 246.46 223.89C248.69 225.75 251.04 226.68 253.52 226.68C257.995 226.68 261.15 224.37 262.98 219.745L263.03 219.8ZM262.73 209.08C262.68 207.105 262.36 205.35 261.755 203.815C261.15 202.28 260.13 200.975 258.69 199.895C257.25 198.815 255.525 198.275 253.505 198.275C250.893 198.233 248.385 199.297 246.6 201.205C244.71 203.205 243.6 205.78 243.415 209.08L262.725 209.08L262.73 209.08ZM278.58 230.31L275.945 230.31L275.945 182.81L281.43 182.81L281.43 201.01C283.93 196.445 287.43 194.16 291.795 194.16C295.825 194.16 299.205 195.76 301.93 198.945C304.655 202.13 306.015 206.765 306.015 212.835C306.015 218.07 304.665 222.46 301.995 226.01C299.325 229.56 295.825 231.335 291.535 231.335C286.755 231.335 283.035 229.065 280.535 224.535L278.535 230.36L278.58 230.31ZM281.43 216.51C281.68 220.125 282.795 222.75 284.755 224.38C286.715 226.01 288.79 226.88 290.975 226.88C293.76 226.88 296.005 225.67 297.715 223.25C299.425 220.83 300.275 217.515 300.275 213.31C300.275 208.775 299.45 205.21 297.805 202.61C296.16 200.01 293.87 198.72 290.945 198.72C288.645 198.72 286.575 199.645 284.725 201.49C282.875 203.335 281.725 205.725 281.435 208.65L281.435 216.5L281.43 216.51ZM319.995 221.18L325.225 220.1C326.385 224.525 330.065 226.735 336.245 226.735C338.52 226.735 340.455 226.225 342.035 225.205C343.552 224.305 344.462 222.653 344.41 220.89C344.41 218.14 342.395 216.39 338.37 215.64L330.955 214.23C328.055 213.67 325.74 212.58 324.02 210.95C322.3 209.32 321.445 207.175 321.445 204.45C321.445 201.45 322.615 199.03 324.965 197.04C327.315 195.05 330.465 194.06 334.44 194.06C342.08 194.06 346.79 197.045 348.59 203.02L343.57 204.1C342.13 200.45 339.17 198.615 334.695 198.615C332.465 198.615 330.635 199.115 329.21 199.985C327.85 200.774 327.029 202.243 327.07 203.815C327.07 206.405 328.895 208.03 332.54 208.705L339.39 209.965C346.57 211.265 350.155 214.75 350.155 220.405C350.219 223.526 348.713 226.47 346.145 228.245C343.475 230.235 339.92 231.235 335.475 231.235C327.125 231.235 321.975 227.865 319.995 221.135L319.995 221.18ZM379.325 219.8L384.425 220.8C383.5 223.81 381.69 226.3 378.995 228.275C376.3 230.25 373.135 231.235 369.495 231.235C364.695 231.235 360.805 229.545 357.835 226.155C354.865 222.765 353.335 218.33 353.335 212.84C353.335 207.23 354.875 202.7 357.965 199.24C360.87 195.86 365.135 193.958 369.59 194.055C374.18 194.055 377.88 195.645 380.675 198.83C383.47 202.015 384.905 206.77 384.975 213.11L359.415 213.11C359.415 218.435 360.525 222.03 362.75 223.89C364.975 225.75 367.33 226.68 369.815 226.68C374.29 226.68 377.445 224.37 379.275 219.745L379.325 219.8ZM379.025 209.08C378.975 207.105 378.65 205.35 378.05 203.815C377.45 202.28 376.43 200.975 374.99 199.895C373.55 198.815 371.825 198.275 369.805 198.275C367.191 198.231 364.681 199.296 362.895 201.205C361.005 203.205 359.895 205.78 359.715 209.08L379.025 209.08L379.025 209.08ZM396.41 230.31L390.925 230.31L390.925 195.09L395.725 195.09L395.725 203.3C397.425 199.45 399.125 196.96 400.825 195.825C402.525 194.69 404.325 194.115 406.065 194.115C406.787 194.125 407.507 194.168 408.225 194.245L408.225 199.475L407.115 199.475C404.1 199.475 401.595 200.595 399.6 202.835C397.605 205.075 396.54 208.02 396.4 211.665L396.4 230.315L396.41 230.31ZM442.31 195.09L430.15 230.31L424.465 230.31L411.9 195.09L417.97 195.09L427.745 223.715L437.445 195.09L442.31 195.09L442.31 195.09ZM452.56 182.75L452.56 188.835L446.7 188.835L446.7 182.75L452.57 182.75L452.56 182.75ZM452.43 195.085L452.43 230.305L447 230.305L447 195.085L452.485 195.085L452.43 195.085ZM481.1 217.975L486.035 218.845C485.335 222.735 483.795 225.78 481.405 227.985C479.015 230.19 476.03 231.285 472.405 231.285C467.555 231.285 463.905 229.485 461.305 225.91C458.705 222.335 457.49 217.91 457.49 212.785C457.49 207.435 458.83 202.985 461.515 199.435C464.2 195.885 467.85 194.11 472.515 194.11C476.345 194.11 479.415 195.26 481.73 197.61C484.045 199.96 485.48 202.86 486.03 206.5L481.095 207.44C480.165 201.625 477.36 198.72 472.67 198.72C469.818 198.624 467.144 200.103 465.71 202.57C464.085 205.135 463.27 208.46 463.27 212.55C463.27 217.05 464.07 220.55 465.69 223.05C467.109 225.443 469.714 226.877 472.495 226.795C477.02 226.795 479.885 223.875 481.095 218.03L481.1 217.975ZM516.98 219.8L522.08 220.8C521.143 223.822 519.234 226.45 516.65 228.275C513.95 230.25 510.79 231.235 507.15 231.235C502.35 231.235 498.45 229.545 495.485 226.155C492.52 222.765 490.985 218.33 490.985 212.84C490.985 207.23 492.485 202.7 495.615 199.24C498.52 195.86 502.784 193.958 507.24 194.055C511.84 194.055 515.54 195.645 518.33 198.83C521.12 202.015 522.56 206.77 522.63 213.11L497.07 213.11C497.07 218.435 498.18 222.03 500.41 223.89C502.64 225.75 504.99 226.68 507.47 226.68C511.945 226.68 515.1 224.37 516.93 219.745L516.98 219.8ZM516.68 209.08C516.63 207.105 516.31 205.35 515.705 203.815C515.076 202.246 514.015 200.886 512.645 199.895C511.205 198.815 509.48 198.275 507.46 198.275C504.848 198.228 502.34 199.293 500.56 201.205C498.68 203.205 497.56 205.78 497.375 209.08L516.685 209.08L516.68 209.08ZM525.78 221.18L531.01 220.1C532.17 224.525 535.845 226.735 542.03 226.735C544.305 226.735 546.23 226.225 547.82 225.205C549.335 224.304 550.243 222.652 550.19 220.89C550.19 218.14 548.175 216.39 544.155 215.64L536.74 214.23C533.84 213.67 531.525 212.58 529.805 210.95C528.085 209.32 527.23 207.175 527.23 204.45C527.23 201.45 528.4 199.03 530.75 197.04C533.1 195.05 536.25 194.06 540.225 194.06C547.865 194.06 552.575 197.045 554.375 203.02L549.355 204.1C547.915 200.45 544.955 198.615 540.48 198.615C538.25 198.615 536.48 199.115 534.995 199.985C533.635 200.774 532.814 202.243 532.855 203.815C532.855 206.405 534.68 208.03 538.325 208.705L545.175 209.965C552.355 211.265 555.94 214.75 555.94 220.405C556.004 223.526 554.498 226.47 551.93 228.245C549.26 230.235 545.705 231.235 541.26 231.235C532.92 231.235 527.76 227.865 525.785 221.135L525.78 221.18Z" id="Forme" fill="#000000" fill-rule="evenodd" stroke="#000000" stroke-width="0.213" />
          <path d="M402.1 119.82L402.1 111.36C402.086 110.786 402.308 110.231 402.714 109.825C403.121 109.418 403.676 109.196 404.25 109.21L442.165 109.21C443.375 109.21 444.35 110.09 444.355 111.345L444.355 118.595C444.345 119.81 443.32 121.395 441.505 123.92L421.87 151.96C429.16 151.79 436.87 152.88 443.495 156.61C444.995 157.45 445.385 158.69 445.505 159.91L445.505 168.935C445.505 170.185 444.145 171.62 442.715 170.87C431.045 164.755 415.565 164.085 402.655 170.94C401.335 171.64 399.955 170.225 399.955 168.98L399.955 160.4C399.955 159.025 399.98 156.68 401.365 154.585L424.115 121.935L404.3 121.935C403.722 121.961 403.159 121.748 402.744 121.346C402.329 120.944 402.097 120.388 402.105 119.81L402.1 119.82ZM266.415 172.66L254.88 172.66C253.78 172.59 252.905 171.76 252.82 170.66L252.825 111.46C252.825 110.275 253.825 109.33 255.05 109.33L265.79 109.325C266.915 109.385 267.815 110.235 267.89 111.315L267.89 119.045L268.105 119.045C270.905 111.57 276.18 108.08 283.285 108.08C290.5 108.08 295.02 111.57 298.255 119.045C301.055 111.57 307.405 108.08 314.19 108.08C319.04 108.08 324.31 110.08 327.54 114.56C331.2 119.54 330.45 126.77 330.45 133.125L330.44 170.485C330.44 171.67 329.44 172.615 328.215 172.615L316.7 172.615C315.55 172.54 314.63 171.625 314.63 170.49L314.63 139.15C314.63 136.65 314.845 130.43 314.305 128.06C313.445 124.075 310.805 122.95 307.525 122.95C304.725 122.95 301.815 124.82 300.625 127.81C299.435 130.8 299.55 135.785 299.55 139.15L299.55 170.53C299.55 171.715 298.55 172.66 297.325 172.66L285.8 172.66C284.64 172.585 283.73 171.67 283.73 170.535L283.72 139.15C283.72 132.55 284.795 122.83 276.62 122.83C268.33 122.83 268.65 132.295 268.65 139.15L268.65 170.53C268.65 171.715 267.65 172.66 266.425 172.66L266.415 172.66ZM472.215 108.125C489.2 108.125 498.385 122.825 498.385 141.515C498.385 159.58 488.235 173.905 472.215 173.905C455.55 173.905 446.465 159.205 446.465 140.89C446.465 122.455 455.655 108.125 472.215 108.125L472.215 108.125ZM472.325 121.735C463.885 121.735 463.35 133.32 463.35 140.545C463.35 147.77 463.25 161.695 472.22 161.695C481.09 161.695 481.52 150.76 481.52 143.16C481.52 138.18 481.31 132.195 479.82 127.46C478.535 123.35 475.97 121.73 472.34 121.73L472.325 121.735ZM522.965 172.66L511.475 172.66C510.325 172.585 509.405 171.67 509.405 170.535L509.385 111.31C509.485 110.225 510.385 109.38 511.6 109.38L522.3 109.375C523.276 109.412 524.111 110.088 524.35 111.035L524.35 120.035L524.57 120.035C527.8 111.935 532.32 108.075 540.29 108.075C545.455 108.075 550.52 109.945 553.75 115.05C556.765 119.785 556.765 127.75 556.765 133.49L556.765 170.74C556.635 171.74 555.695 172.605 554.555 172.605L542.99 172.605C541.925 172.535 541.065 171.755 540.99 170.74L540.99 138.59C540.99 132.115 541.74 122.59 533.775 122.59C530.975 122.59 528.39 124.46 527.1 127.325C525.485 130.94 525.265 134.55 525.265 138.54L525.265 170.42C525.245 171.605 524.25 172.55 523.015 172.55L522.965 172.66ZM373.19 144.385C373.19 148.885 373.3 152.625 371.03 156.62C369.195 159.87 366.28 161.87 363.045 161.87C358.62 161.87 356.03 158.5 356.03 153.505C356.03 143.685 364.845 141.895 373.18 141.895L373.18 144.395L373.19 144.385ZM384.82 172.51C384.055 173.195 382.955 173.24 382.095 172.78C378.265 169.595 377.58 168.13 375.485 165.09C369.155 171.59 364.67 173.475 356.47 173.475C346.76 173.475 339.205 167.475 339.205 155.495C339.205 146.13 344.275 139.765 351.505 136.645C357.765 133.895 366.505 133.395 373.195 132.645L373.195 131.145C373.195 128.395 373.41 125.155 371.795 122.78C370.395 120.655 367.695 119.78 365.32 119.78C360.92 119.78 357.01 122.03 356.045 126.71C355.845 127.75 355.085 128.775 354.045 128.83L342.865 127.62C341.865 127.405 340.865 126.65 341.145 125.21C343.715 111.645 355.965 107.55 366.945 107.55C372.555 107.55 379.945 109.05 384.315 113.3C389.93 118.55 389.385 125.535 389.385 133.15L389.385 151.12C389.385 156.52 391.635 158.895 393.735 161.81C394.47 162.81 394.635 164.11 393.695 164.875L384.845 172.535L384.815 172.505L384.82 172.51ZM223.285 144.385C223.285 148.885 223.395 152.625 221.125 156.62C219.29 159.87 216.375 161.87 213.14 161.87C208.715 161.87 206.125 158.5 206.125 153.505C206.125 143.685 214.935 141.895 223.275 141.895L223.275 144.395L223.285 144.385ZM234.915 172.51C234.15 173.195 233.05 173.24 232.19 172.78C228.36 169.595 227.67 168.13 225.58 165.09C219.25 171.59 214.765 173.475 206.565 173.475C196.855 173.475 189.3 167.475 189.3 155.495C189.3 146.13 194.37 139.765 201.6 136.645C207.86 133.895 216.6 133.395 223.29 132.645L223.29 131.145C223.29 128.395 223.505 125.155 221.89 122.78C220.49 120.655 217.79 119.78 215.415 119.78C211.015 119.78 207.105 122.03 206.14 126.71C205.94 127.75 205.14 128.775 204.14 128.83L192.96 127.62C191.96 127.405 190.96 126.65 191.24 125.21C193.805 111.645 206.055 107.55 217.04 107.55C222.65 107.55 230.04 109.05 234.415 113.3C240.025 118.55 239.485 125.535 239.485 133.15L239.485 151.12C239.485 156.52 241.735 158.895 243.835 161.81C244.57 162.81 244.735 164.11 243.8 164.875L235 172.535L234.97 172.505L234.915 172.51Z" id="Forme" fill="#000000" fill-rule="evenodd" stroke="none" />
        </g>
      </g>
      <g id="Free-Tier" fill="#333983" transform="translate(69 332)">
        <path d="M328.752 32.244Q332.352 35.364 338.208 35.364Q344.16 35.364 347.712 32.148Q351.264 28.932 351.264 23.94Q351.264 19.236 347.712 16.26Q344.16 13.284 338.208 13.284Q332.352 13.284 328.752 16.404Q325.152 19.524 325.152 24.324Q325.152 29.124 328.752 32.244ZM28.128 53.508L28.128 41.988L60.096 41.988L60.096 24.9L5.472 24.9L5.472 92.1L28.128 92.1L28.128 70.596L56.16 70.596L56.16 53.508L28.128 53.508ZM279.84 42.468L260.16 42.468L260.16 24.9L322.176 24.9L322.176 42.468L302.496 42.468L302.496 92.1L279.84 92.1L279.84 42.468ZM104.256 38.628Q93.024 38.628 87.264 45.252L87.264 39.588L66.624 39.588L66.624 92.1L88.32 92.1L88.32 68.772Q88.32 57.444 99.456 57.444Q101.664 57.444 104.256 57.828L104.256 38.628ZM166.272 65.796Q166.272 66.276 165.984 70.884L129.504 70.884Q130.656 73.86 133.344 75.444Q136.032 77.028 140.064 77.028Q143.52 77.028 145.872 76.164Q148.224 75.3 151.008 73.188L162.336 84.612Q154.656 93.06 139.392 93.06Q129.888 93.06 122.688 89.556Q115.488 86.052 111.552 79.812Q107.616 73.572 107.616 65.796Q107.616 57.924 111.504 51.732Q115.392 45.54 122.16 42.084Q128.928 38.628 137.376 38.628Q145.344 38.628 151.92 41.796Q158.496 44.964 162.384 51.108Q166.272 57.252 166.272 65.796ZM228.672 70.884Q228.96 66.276 228.96 65.796Q228.96 57.252 225.072 51.108Q221.184 44.964 214.608 41.796Q208.032 38.628 200.064 38.628Q191.616 38.628 184.848 42.084Q178.08 45.54 174.192 51.732Q170.304 57.924 170.304 65.796Q170.304 73.572 174.24 79.812Q178.176 86.052 185.376 89.556Q192.576 93.06 202.08 93.06Q217.344 93.06 225.024 84.612L213.696 73.188Q210.912 75.3 208.56 76.164Q206.208 77.028 202.752 77.028Q198.72 77.028 196.032 75.444Q193.344 73.86 192.192 70.884L228.672 70.884ZM414.528 65.796Q414.528 66.276 414.24 70.884L377.76 70.884Q378.912 73.86 381.6 75.444Q384.288 77.028 388.32 77.028Q391.776 77.028 394.128 76.164Q396.48 75.3 399.264 73.188L410.592 84.612Q402.912 93.06 387.648 93.06Q378.144 93.06 370.944 89.556Q363.744 86.052 359.808 79.812Q355.872 73.572 355.872 65.796Q355.872 57.924 359.76 51.732Q363.648 45.54 370.416 42.084Q377.184 38.628 385.632 38.628Q393.6 38.628 400.176 41.796Q406.752 44.964 410.64 51.108Q414.528 57.252 414.528 65.796ZM458.976 38.628Q447.744 38.628 441.984 45.252L441.984 39.588L421.344 39.588L421.344 92.1L443.04 92.1L443.04 68.772Q443.04 57.444 454.176 57.444Q456.384 57.444 458.976 57.828L458.976 38.628ZM349.056 92.1L349.056 39.588L327.36 39.588L327.36 92.1L349.056 92.1ZM137.568 53.412Q134.208 53.412 132 55.236Q129.792 57.06 129.12 60.42L146.016 60.42Q145.344 57.156 143.136 55.284Q140.928 53.412 137.568 53.412ZM194.688 55.236Q196.896 53.412 200.256 53.412Q203.616 53.412 205.824 55.284Q208.032 57.156 208.704 60.42L191.808 60.42Q192.48 57.06 194.688 55.236ZM385.824 53.412Q382.464 53.412 380.256 55.236Q378.048 57.06 377.376 60.42L394.272 60.42Q393.6 57.156 391.392 55.284Q389.184 53.412 385.824 53.412Z" />
      </g>
    </g>
  </g>
</svg>