<?xml version="1.0" encoding="utf-8"?>
<svg width="900px" height="600px" viewBox="0 0 900 600" version="1.1" xmlns:xlink="http://www.w3.org/1999/xlink" xmlns="http://www.w3.org/2000/svg">
  <defs>
    <path d="M0 0L600 0L600 300L0 300L0 0Z" id="path_1" />
    <rect width="900" height="600" id="artboard_1" />
    <clipPath id="clip_1">
      <use xlink:href="#artboard_1" clip-rule="evenodd" />
    </clipPath>
    <clipPath id="mask_1">
      <use xlink:href="#path_1" />
    </clipPath>
  </defs>
  <g id="FreeTiers-Post-Featured-Image" clip-path="url(#clip_1)">
    <use xlink:href="#artboard_1" stroke="none" fill="#FFFFFF" />
    <g id="Groupes-2" transform="translate(150 75)" artboard="0663c63d-d19c-499b-9d60-90d9a36dea0c">
      <g id="Groupes" transform="translate(70 333)">
        <g id="Free-Tier" fill="#333983">
          <path d="M328.752 32.244Q332.352 35.364 338.208 35.364Q344.16 35.364 347.712 32.148Q351.264 28.932 351.264 23.94Q351.264 19.236 347.712 16.26Q344.16 13.284 338.208 13.284Q332.352 13.284 328.752 16.404Q325.152 19.524 325.152 24.324Q325.152 29.124 328.752 32.244ZM28.128 53.508L28.128 41.988L60.096 41.988L60.096 24.9L5.472 24.9L5.472 92.1L28.128 92.1L28.128 70.596L56.16 70.596L56.16 53.508L28.128 53.508ZM279.84 42.468L260.16 42.468L260.16 24.9L322.176 24.9L322.176 42.468L302.496 42.468L302.496 92.1L279.84 92.1L279.84 42.468ZM104.256 38.628Q93.024 38.628 87.264 45.252L87.264 39.588L66.624 39.588L66.624 92.1L88.32 92.1L88.32 68.772Q88.32 57.444 99.456 57.444Q101.664 57.444 104.256 57.828L104.256 38.628ZM166.272 65.796Q166.272 66.276 165.984 70.884L129.504 70.884Q130.656 73.86 133.344 75.444Q136.032 77.028 140.064 77.028Q143.52 77.028 145.872 76.164Q148.224 75.3 151.008 73.188L162.336 84.612Q154.656 93.06 139.392 93.06Q129.888 93.06 122.688 89.556Q115.488 86.052 111.552 79.812Q107.616 73.572 107.616 65.796Q107.616 57.924 111.504 51.732Q115.392 45.54 122.16 42.084Q128.928 38.628 137.376 38.628Q145.344 38.628 151.92 41.796Q158.496 44.964 162.384 51.108Q166.272 57.252 166.272 65.796ZM228.672 70.884Q228.96 66.276 228.96 65.796Q228.96 57.252 225.072 51.108Q221.184 44.964 214.608 41.796Q208.032 38.628 200.064 38.628Q191.616 38.628 184.848 42.084Q178.08 45.54 174.192 51.732Q170.304 57.924 170.304 65.796Q170.304 73.572 174.24 79.812Q178.176 86.052 185.376 89.556Q192.576 93.06 202.08 93.06Q217.344 93.06 225.024 84.612L213.696 73.188Q210.912 75.3 208.56 76.164Q206.208 77.028 202.752 77.028Q198.72 77.028 196.032 75.444Q193.344 73.86 192.192 70.884L228.672 70.884ZM414.528 65.796Q414.528 66.276 414.24 70.884L377.76 70.884Q378.912 73.86 381.6 75.444Q384.288 77.028 388.32 77.028Q391.776 77.028 394.128 76.164Q396.48 75.3 399.264 73.188L410.592 84.612Q402.912 93.06 387.648 93.06Q378.144 93.06 370.944 89.556Q363.744 86.052 359.808 79.812Q355.872 73.572 355.872 65.796Q355.872 57.924 359.76 51.732Q363.648 45.54 370.416 42.084Q377.184 38.628 385.632 38.628Q393.6 38.628 400.176 41.796Q406.752 44.964 410.64 51.108Q414.528 57.252 414.528 65.796ZM458.976 38.628Q447.744 38.628 441.984 45.252L441.984 39.588L421.344 39.588L421.344 92.1L443.04 92.1L443.04 68.772Q443.04 57.444 454.176 57.444Q456.384 57.444 458.976 57.828L458.976 38.628ZM349.056 92.1L349.056 39.588L327.36 39.588L327.36 92.1L349.056 92.1ZM137.568 53.412Q134.208 53.412 132 55.236Q129.792 57.06 129.12 60.42L146.016 60.42Q145.344 57.156 143.136 55.284Q140.928 53.412 137.568 53.412ZM194.688 55.236Q196.896 53.412 200.256 53.412Q203.616 53.412 205.824 55.284Q208.032 57.156 208.704 60.42L191.808 60.42Q192.48 57.06 194.688 55.236ZM385.824 53.412Q382.464 53.412 380.256 55.236Q378.048 57.06 377.376 60.42L394.272 60.42Q393.6 57.156 391.392 55.284Q389.184 53.412 385.824 53.412Z" />
        </g>
      </g>
      <g id="google_cloud-ar21">
        <path d="M0 0L600 0L600 300L0 300L0 0Z" id="Arrière-plan" fill="#FFFFFF" fill-opacity="0" fill-rule="evenodd" stroke="none" />
        <g clip-path="url(#mask_1)">
          <path d="M324.35 57.86L330.07 57.96L345.61 42.42L346.36 35.835C334.01 24.85 317.76 18.165 299.975 18.165C267.775 18.165 240.595 40.075 232.545 69.755C234.245 68.57 237.87 69.455 237.87 69.455L268.93 64.345C268.93 64.345 270.53 61.695 271.33 61.86C285.169 46.7204 308.401 44.9679 324.355 57.86L324.35 57.86Z" id="Forme" fill="#EA4335" fill-rule="evenodd" stroke="none" />
          <path d="M367.5 69.81C363.93 56.6734 356.603 44.8641 346.42 35.83L324.41 57.84C333.559 65.1932 338.882 76.2971 338.885 88.035L338.885 91.92C349.595 91.92 358.285 100.635 358.285 111.32C358.285 122.005 349.57 130.72 338.885 130.72L300.075 130.72L296.19 134.62L296.19 157.91L300.075 161.775L338.885 161.775C366.711 161.701 389.245 139.151 389.3 111.325C389.28 94.145 380.62 78.925 367.45 69.81L367.5 69.81Z" id="Forme" fill="#4285F4" fill-rule="evenodd" stroke="none" />
          <path d="M261.17 161.81L299.97 161.81L299.97 130.75L261.17 130.75C258.415 130.751 255.691 130.16 253.185 129.015L247.585 130.73L232.045 146.27L230.685 151.52C239.428 158.233 250.152 161.856 261.175 161.82L261.17 161.81Z" id="Forme" fill="#34A853" fill-rule="evenodd" stroke="none" />
          <path d="M261.17 60.875C233.314 60.9191 210.744 83.4895 210.7 111.345C210.7 127.139 218.103 142.019 230.7 151.545L253.2 129.045C246.238 125.913 241.761 118.989 241.76 111.355C241.76 100.645 250.475 91.955 261.16 91.955C268.79 91.9684 275.708 96.4419 278.85 103.395L301.35 80.895C292.12 68.745 277.55 60.895 261.15 60.895L261.17 60.875Z" id="Forme" fill="#FBBC05" fill-rule="evenodd" stroke="none" />
          <path d="M60 259.685C49.4 259.685 40.3 255.935 32.63 248.435C24.96 240.935 21.13 231.915 21.13 221.395C21.13 210.875 24.955 201.855 32.63 194.355C40.305 186.855 49.415 183.1 60 183.1C69.8087 182.957 79.264 186.758 86.245 193.65L78.86 201.035C73.8064 196.148 67.024 193.461 59.995 193.56C52.345 193.56 45.845 196.26 40.515 201.695C35.2753 206.898 32.3905 214.017 32.53 221.4C32.53 229.13 35.18 235.685 40.515 241.1C45.5838 246.418 52.6494 249.369 59.995 249.235C67.785 249.235 74.22 246.735 79.345 241.565C82.345 238.565 84.345 234.065 85.045 228.39L60.015 228.39L60.015 217.93L95.235 217.93C95.61 219.79 95.735 221.93 95.735 224.43C95.735 234.71 92.72 242.86 86.67 248.905C79.81 256.08 70.92 259.655 59.945 259.655L60 259.685ZM141.85 252.685C137.05 257.385 131.2 259.685 124.29 259.685C117.38 259.685 111.52 257.335 106.73 252.685C101.94 248.035 99.54 242.12 99.54 235.085C99.54 228.05 101.94 222.185 106.73 217.485C111.52 212.785 117.38 210.485 124.29 210.485C131.2 210.485 137.06 212.835 141.85 217.485C146.64 222.135 149.04 228.065 149.04 235.085C149.04 242.105 146.64 247.985 141.85 252.685L141.85 252.685ZM114.48 245.785C117.003 248.526 120.57 250.069 124.295 250.03C128.095 250.03 131.365 248.62 134.11 245.78C136.855 242.94 138.22 239.38 138.22 235.08C138.22 230.73 136.87 227.14 134.155 224.33C131.44 221.52 128.165 220.13 124.295 220.13C120.562 220.073 116.98 221.599 114.435 224.33C111.72 227.13 110.37 230.71 110.37 235.08C110.37 239.37 111.735 242.945 114.48 245.78L114.48 245.785ZM195.845 252.685C191.045 257.385 185.195 259.685 178.285 259.685C171.375 259.685 165.515 257.335 160.725 252.685C155.935 248.035 153.535 242.12 153.535 235.085C153.535 228.05 155.935 222.185 160.725 217.485C165.515 212.785 171.375 210.485 178.285 210.485C185.195 210.485 191.055 212.835 195.845 217.485C200.635 222.135 203.035 228.065 203.035 235.085C203.035 242.105 200.635 247.985 195.845 252.685L195.845 252.685ZM168.475 245.785C170.998 248.526 174.565 250.069 178.29 250.03C182.09 250.03 185.36 248.62 188.105 245.78C190.85 242.94 192.215 239.38 192.215 235.08C192.215 230.73 190.865 227.14 188.15 224.33C185.435 221.52 182.16 220.13 178.29 220.13C174.557 220.073 170.975 221.599 168.43 224.33C165.715 227.13 164.365 230.71 164.365 235.08C164.365 239.37 165.73 242.945 168.475 245.78L168.475 245.785ZM231.34 281.885C225.865 281.885 221.255 280.415 217.52 277.485C213.785 274.555 211.11 271.165 209.49 267.295L218.93 263.38C219.92 265.75 221.43 267.805 223.595 269.55C225.76 271.295 228.295 272.16 231.355 272.16C235.465 272.16 238.695 270.91 241.02 268.425C243.345 265.94 244.52 262.345 244.52 257.675L244.52 254.175L244.145 254.175C241.145 257.91 236.76 259.785 231.165 259.785C224.875 259.785 219.365 257.385 214.63 252.595C209.982 248.019 207.415 241.736 207.53 235.215C207.413 228.654 209.977 222.328 214.63 217.7C219.355 212.885 224.88 210.465 231.165 210.465C233.965 210.465 236.505 210.99 238.775 212.055C241.045 213.12 242.84 214.425 244.145 215.97L244.52 215.97L244.52 212L254.8 212L254.8 256.285C254.8 264.885 252.61 271.305 248.21 275.585C243.81 279.835 238.2 281.985 231.345 281.985L231.34 281.885ZM232.09 250.025C235.699 250.089 239.147 248.531 241.485 245.78C244.005 242.945 245.265 239.415 245.265 235.17C245.265 230.88 244.005 227.29 241.485 224.42C239.16 221.646 235.708 220.07 232.09 220.13C228.29 220.13 225.05 221.57 222.38 224.42C219.71 227.27 218.36 230.86 218.36 235.17C218.36 239.4 219.695 242.945 222.38 245.78C225.065 248.615 228.295 250.03 232.09 250.03L232.09 250.025ZM273.1 185.7L273.1 258.2L262.265 258.2L262.265 185.7L273.1 185.7ZM302.8 259.68C295.82 259.68 290 257.31 285.33 252.58C280.66 247.85 278.32 242 278.32 235.02C278.32 227.8 280.57 221.87 285.09 217.27C289.377 212.759 295.357 210.249 301.58 210.35C304.565 210.35 307.345 210.89 309.895 211.985C312.266 212.957 314.423 214.383 316.245 216.185C317.764 217.697 319.112 219.372 320.265 221.18C321.217 222.725 322.031 224.351 322.695 226.04L323.82 228.84L290.85 242.5C293.35 247.48 297.35 249.975 302.81 249.975C307.79 249.975 311.845 247.71 314.95 243.16L323.35 248.77C321.475 251.57 318.835 254.095 315.41 256.335C311.985 258.575 307.77 259.685 302.79 259.685L302.8 259.68ZM289.07 234.28L311.07 225.13C310.44 223.57 309.3 222.31 307.57 221.35C305.83 220.375 303.864 219.879 301.87 219.91C298.69 219.91 295.72 221.21 292.955 223.825C290.19 226.44 288.855 229.935 288.98 234.285L289.07 234.28ZM380.72 259.68C370.87 259.68 362.62 256.35 355.96 249.68C349.3 243.01 345.96 234.705 345.96 224.74C345.96 214.775 349.29 206.46 355.96 199.8C362.63 193.14 370.875 189.8 380.72 189.8C390.805 189.8 399 193.45 405.285 200.725L399.31 206.525C394.81 200.855 388.56 198.025 380.71 198.025C373.41 198.025 367.28 200.485 362.21 205.41C357.14 210.335 354.69 216.77 354.69 224.74C354.69 232.71 357.19 239.16 362.21 244.09C367.23 249.02 373.375 251.475 380.71 251.475C388.74 251.475 395.595 248.235 401.21 241.765L407.185 247.74C404.054 251.476 400.124 254.461 395.685 256.475C390.977 258.641 385.847 259.737 380.665 259.685L380.72 259.68ZM423.5 258.2L414.9 258.2L414.9 191.315L423.5 191.315L423.5 258.2ZM437.515 217.9C441.94 213.265 447.515 210.935 454.425 210.935C461.335 210.935 466.91 213.26 471.335 217.9C475.76 222.54 477.97 228.4 477.97 235.325C477.97 242.25 475.77 248.11 471.335 252.75C466.9 257.39 461.335 259.715 454.425 259.715C447.515 259.715 441.94 257.39 437.515 252.75C433.09 248.11 430.88 242.25 430.88 235.325C430.88 228.4 433.08 222.54 437.515 217.9L437.515 217.9ZM443.915 247.315C446.915 250.33 450.385 251.845 454.415 251.845C458.445 251.845 461.915 250.33 464.915 247.315C467.915 244.3 469.355 240.29 469.355 235.315C469.355 230.34 467.87 226.325 464.915 223.315C461.96 220.305 458.445 218.785 454.415 218.785C450.385 218.785 446.915 220.3 443.915 223.315C440.915 226.33 439.475 230.34 439.475 235.315C439.475 240.29 440.96 244.305 443.915 247.315L443.915 247.315ZM525.515 258.2L517.29 258.2L517.29 251.85L516.915 251.85C515.615 254.025 513.615 255.885 510.94 257.35C508.265 258.815 505.44 259.65 502.44 259.65C496.705 259.65 492.37 257.91 489.415 254.415C486.46 250.92 484.975 246.25 484.975 240.4L484.975 212.37L493.575 212.37L493.575 238.99C493.575 247.53 497.34 251.79 504.875 251.79C508.298 251.862 511.541 250.261 513.565 247.5C515.788 244.681 516.974 241.184 516.925 237.595L516.925 212.37L525.525 212.37L525.525 258.155L525.515 258.2ZM554.655 259.685C548.74 259.685 543.625 257.345 539.335 252.675C535.045 248.005 532.895 242.215 532.895 235.295C532.895 228.375 535.045 222.585 539.335 217.915C543.625 213.245 548.745 210.905 554.655 210.905C558.135 210.905 561.275 211.655 564.055 213.14C566.835 214.625 568.905 216.5 570.27 218.75L570.645 218.75L570.27 212.4L570.27 191.3L578.87 191.3L578.87 258.2L570.645 258.2L570.645 251.85L570.27 251.85C568.905 254.085 566.835 255.96 564.055 257.46C561.28 258.93 558.14 259.68 554.655 259.68L554.655 259.685ZM556.055 251.835C559.98 251.888 563.74 250.255 566.38 247.35C569.215 244.365 570.63 240.34 570.63 235.35C570.63 230.36 569.22 226.285 566.38 223.35C563.74 220.445 559.98 218.812 556.055 218.865C552.065 218.865 548.64 220.38 545.775 223.395C542.91 226.41 541.485 230.42 541.485 235.395C541.485 240.37 542.91 244.385 545.775 247.395C548.393 250.31 552.137 251.96 556.055 251.925L556.055 251.835Z" id="Forme" fill="#5F6368" fill-rule="evenodd" stroke="none" />
        </g>
      </g>
    </g>
  </g>
</svg>